module github.com/hoanghaiha/api/v1

go 1.16

require (
	github.com/dgrijalva/jwt-go v3.2.0+incompatible // indirect
	github.com/gorilla/mux v1.8.0 // indirect
	github.com/labstack/echo v3.3.10+incompatible // indirect
	github.com/labstack/gommon v0.3.0 // indirect
	golang.org/x/crypto v0.0.0-20210616213533-5ff15b29337e // indirect
)
